<?xml version="1.0" encoding="UTF-8" standalone="no"?>
<svg
   xmlns:dc="http://purl.org/dc/elements/1.1/"
   xmlns:cc="http://creativecommons.org/ns#"
   xmlns:rdf="http://www.w3.org/1999/02/22-rdf-syntax-ns#"
   xmlns:svg="http://www.w3.org/2000/svg"
   xmlns="http://www.w3.org/2000/svg"
   xmlns:sodipodi="http://sodipodi.sourceforge.net/DTD/sodipodi-0.dtd"
   xmlns:inkscape="http://www.inkscape.org/namespaces/inkscape"
   width="440"
   height="36"
   viewBox="0 0 440 36"
   version="1.1"
   id="svg16"
   sodipodi:docname="decoracion-form (copia).svg"
   inkscape:version="0.92.4 (5da689c313, 2019-01-14)">
  <metadata
     id="metadata20">
    <rdf:RDF>
      <cc:Work
         rdf:about="">
        <dc:format>image/svg+xml</dc:format>
        <dc:type
           rdf:resource="http://purl.org/dc/dcmitype/StillImage" />
        <dc:title></dc:title>
      </cc:Work>
    </rdf:RDF>
  </metadata>
  <sodipodi:namedview
     pagecolor="#ffffff"
     bordercolor="#666666"
     borderopacity="1"
     objecttolerance="10"
     gridtolerance="10"
     guidetolerance="10"
     inkscape:pageopacity="0"
     inkscape:pageshadow="2"
     inkscape:window-width="1366"
     inkscape:window-height="712"
     id="namedview18"
     showgrid="false"
     inkscape:pagecheckerboard="true"
     inkscape:zoom="0.65454545"
     inkscape:cx="220"
     inkscape:cy="18"
     inkscape:window-x="0"
     inkscape:window-y="28"
     inkscape:window-maximized="1"
     inkscape:current-layer="g14" />
  <defs
     id="defs4">
    <style
       id="style2">.a{fill:#ccc;}.b{fill:#fff;}.c{fill:#172c54;}.d{fill:#e76136;}</style>
  </defs>
  <g
     transform="translate(-960 -157)"
     id="g14">
    <path
       class="d"
       d="M-55.2-1842.04s-4.182,2.535,0-5.069,29.575-31.331,70.968-30.288,56.145,6.3,76.8,10.518,49.044,6.97,67.42,7.477,42.917-8.221,47.4-10.011,2.154.634,0,2.661-24.585,16.094-52.212,17.235-60.7-1.267-93.272-6.21-39.032-4.562-59.436-5.069-43.595,9.251-51.832,14.827S-55.2-1842.04-55.2-1842.04Z"
       transform="translate(1017.063 2034.43)"
       id="path12" />
  </g>
</svg>
